<svg viewBox="0 0 44 43" xmlns="http://www.w3.org/2000/svg">
    <path fill-rule="evenodd" clip-rule="evenodd" d="M43.7071 2.20711C44.0976 1.81658 44.0976 1.18342 43.7071 0.792893C43.3166 0.402369 42.6834 0.402369 42.2929 0.792893L20.5 22.5858L13.7071 15.7929C13.3166 15.4024 12.6834 15.4024 12.2929 15.7929C11.9024 16.1834 11.9024 16.8166 12.2929 17.2071L19.7929 24.7071C20.1834 25.0976 20.8166 25.0976 21.2071 24.7071L43.7071 2.20711ZM2 22.5C2 12.2523 10.2523 4 20.5 4C24.1283 4 27.5459 5.06731 30.395 6.848C30.8633 7.14071 31.4803 6.99833 31.773 6.53C32.0657 6.06166 31.9233 5.44471 31.455 5.152C28.3041 3.18269 24.5217 2 20.5 2C9.14772 2 0 11.1477 0 22.5C0 33.8523 9.14772 43 20.5 43C31.8523 43 41 33.8523 41 22.5C41 19.7418 40.4484 17.0604 39.4222 14.6133C39.2086 14.104 38.6226 13.8642 38.1133 14.0778C37.604 14.2914 37.3642 14.8774 37.5778 15.3867C38.5016 17.5896 39 20.0082 39 22.5C39 32.7477 30.7477 41 20.5 41C10.2523 41 2 32.7477 2 22.5Z"/>
</svg>
